module github.com/pion/ion-sdk-go

go 1.15

require (
	github.com/ebml-go/ebml v0.0.0-20160925193348-ca8851a10894 // indirect
	github.com/ebml-go/webm v0.0.0-20160924163542-629e38feef2a
	github.com/petar/GoLLRB v0.0.0-20190514000832-33fb24c13b99 // indirect
	github.com/pion/ice/v2 v2.0.15
	github.com/pion/ion-log v1.0.0
	github.com/pion/ion-sfu v1.9.0
	github.com/pion/mediadevices v0.1.16
	github.com/pion/sdp/v3 v3.0.4
	github.com/pion/webrtc/v3 v3.0.11
	google.golang.org/grpc v1.35.0
)
